…
In the final release should be working on full datasets

``` r
out <- purrr::map(iris, strip)
purrr::map_df(out, "data")
#> # A tibble: 150 x 5
#>    Sepal.Length Sepal.Width Petal.Length Petal.Width Species
#>           <dbl>       <dbl>        <dbl>       <dbl> <fct>  
#>  1          5.1         3.5          1.4         0.2 level3 
#>  2          4.9         3            1.4         0.2 level3 
#>  3          4.7         3.2          1.3         0.2 level3 
#>  4          4.6         3.1          1.5         0.2 level3 
#>  5          5           3.6          1.4         0.2 level3 
#>  6          5.4         3.9          1.7         0.4 level3 
#>  7          4.6         3.4          1.4         0.3 level3 
#>  8          5           3.4          1.5         0.2 level3 
#>  9          4.4         2.9          1.4         0.2 level3 
#> 10          4.9         3.1          1.5         0.1 level3 
#> # ... with 140 more rows
…
